-- Merging decision tree log ---
manifest
ADDED from C:\Users\admincan\Desktop\android-fundamentals-starter-apps-v2-master\SimpleCalc\app\src\main\AndroidManifest.xml:17:1-34:12
INJECTED from C:\Users\admincan\Desktop\android-fundamentals-starter-apps-v2-master\SimpleCalc\app\src\main\AndroidManifest.xml:17:1-34:12
INJECTED from C:\Users\admincan\Desktop\android-fundamentals-starter-apps-v2-master\SimpleCalc\app\src\main\AndroidManifest.xml:17:1-34:12
INJECTED from C:\Users\admincan\Desktop\android-fundamentals-starter-apps-v2-master\SimpleCalc\app\src\main\AndroidManifest.xml:17:1-34:12
MERGED from [com.android.support:appcompat-v7:28.0.0] C:\Users\admincan\.gradle\caches\transforms-2\files-2.1\af8dbb79ad706f16fd07dadb8505f836\AndroidManifest.xml:17:1-22:12
MERGED from [com.android.support:support-fragment:28.0.0] C:\Users\admincan\.gradle\caches\transforms-2\files-2.1\4bb1c5ca3d037d38d2c6d98607f1dc67\AndroidManifest.xml:17:1-22:12
MERGED from [com.android.support:animated-vector-drawable:28.0.0] C:\Users\admincan\.gradle\caches\transforms-2\files-2.1\fbace32e3e7ea238d66f862fe6505195\AndroidManifest.xml:17:1-22:12
MERGED from [com.android.support:support-core-ui:28.0.0] C:\Users\admincan\.gradle\caches\transforms-2\files-2.1\7cfc4f0eaed53f1ec4833a83320e2cdc\AndroidManifest.xml:17:1-22:12
MERGED from [com.android.support:support-core-utils:28.0.0] C:\Users\admincan\.gradle\caches\transforms-2\files-2.1\3fd5e4d033be1d9e8bb9dc269ae11ea1\AndroidManifest.xml:17:1-22:12
MERGED from [com.android.support:support-vector-drawable:28.0.0] C:\Users\admincan\.gradle\caches\transforms-2\files-2.1\68f33f1cd9b12d31179cd16b8bf3bcbd\AndroidManifest.xml:17:1-22:12
MERGED from [com.android.support:loader:28.0.0] C:\Users\admincan\.gradle\caches\transforms-2\files-2.1\9cea74decd879a398d874344bd2042d9\AndroidManifest.xml:17:1-22:12
MERGED from [com.android.support:viewpager:28.0.0] C:\Users\admincan\.gradle\caches\transforms-2\files-2.1\143edf04da3091d799ef3c6b24079e56\AndroidManifest.xml:17:1-22:12
MERGED from [com.android.support:coordinatorlayout:28.0.0] C:\Users\admincan\.gradle\caches\transforms-2\files-2.1\08a6cecb37ac5a112e0b234e9dd394f9\AndroidManifest.xml:17:1-22:12
MERGED from [com.android.support:drawerlayout:28.0.0] C:\Users\admincan\.gradle\caches\transforms-2\files-2.1\b9d6efba8a73f1101f3debf4f9fdc6a2\AndroidManifest.xml:17:1-22:12
MERGED from [com.android.support:slidingpanelayout:28.0.0] C:\Users\admincan\.gradle\caches\transforms-2\files-2.1\adf6eb0144000cbe396bddc5c2c9a077\AndroidManifest.xml:17:1-22:12
MERGED from [com.android.support:customview:28.0.0] C:\Users\admincan\.gradle\caches\transforms-2\files-2.1\5e4485334331fd8e48b1a936d9ca8492\AndroidManifest.xml:17:1-22:12
MERGED from [com.android.support:swiperefreshlayout:28.0.0] C:\Users\admincan\.gradle\caches\transforms-2\files-2.1\9befaa2f22fbd2c44280bf4be5870cac\AndroidManifest.xml:17:1-22:12
MERGED from [com.android.support:asynclayoutinflater:28.0.0] C:\Users\admincan\.gradle\caches\transforms-2\files-2.1\bfb0ede27b7b8731c3639dc16275eac7\AndroidManifest.xml:17:1-22:12
MERGED from [com.android.support:support-compat:28.0.0] C:\Users\admincan\.gradle\caches\transforms-2\files-2.1\c7d84711d4886e28513461ad25ca6c9a\AndroidManifest.xml:17:1-24:12
MERGED from [com.android.support:versionedparcelable:28.0.0] C:\Users\admincan\.gradle\caches\transforms-2\files-2.1\98a428d603188a0227ce1e2a310bc066\AndroidManifest.xml:17:1-25:12
MERGED from [com.android.support:cursoradapter:28.0.0] C:\Users\admincan\.gradle\caches\transforms-2\files-2.1\c60c99a4eed667922abf38ae3358c453\AndroidManifest.xml:17:1-22:12
MERGED from [android.arch.lifecycle:runtime:1.1.1] C:\Users\admincan\.gradle\caches\transforms-2\files-2.1\abfbc2ea0742ed39ed93c48a0a565355\AndroidManifest.xml:17:1-22:12
MERGED from [com.android.support:documentfile:28.0.0] C:\Users\admincan\.gradle\caches\transforms-2\files-2.1\769212612daf513aff2f31eeae1f2b92\AndroidManifest.xml:17:1-22:12
MERGED from [com.android.support:localbroadcastmanager:28.0.0] C:\Users\admincan\.gradle\caches\transforms-2\files-2.1\655213e21815f09c771c17d9e12b7bb9\AndroidManifest.xml:17:1-22:12
MERGED from [com.android.support:print:28.0.0] C:\Users\admincan\.gradle\caches\transforms-2\files-2.1\4d63f53eeeb8628fbe65ea1e8ebb733d\AndroidManifest.xml:17:1-22:12
MERGED from [android.arch.lifecycle:viewmodel:1.1.1] C:\Users\admincan\.gradle\caches\transforms-2\files-2.1\f37046e76e097699e0c085b52d4087c6\AndroidManifest.xml:17:1-22:12
MERGED from [android.arch.lifecycle:livedata:1.1.1] C:\Users\admincan\.gradle\caches\transforms-2\files-2.1\192f7b33af18ef56c9e0f824aec6ca41\AndroidManifest.xml:17:1-22:12
MERGED from [android.arch.lifecycle:livedata-core:1.1.1] C:\Users\admincan\.gradle\caches\transforms-2\files-2.1\137b2ab515ab974692ec5573f110876c\AndroidManifest.xml:17:1-22:12
MERGED from [android.arch.core:runtime:1.1.1] C:\Users\admincan\.gradle\caches\transforms-2\files-2.1\d27078017cb36e351e5a4d9eb648e2cc\AndroidManifest.xml:17:1-22:12
MERGED from [com.android.support:interpolator:28.0.0] C:\Users\admincan\.gradle\caches\transforms-2\files-2.1\e01dee3495919d4ca2210d08cbf8506b\AndroidManifest.xml:17:1-22:12
INJECTED from C:\Users\admincan\Desktop\android-fundamentals-starter-apps-v2-master\SimpleCalc\app\src\main\AndroidManifest.xml:17:1-34:12
INJECTED from C:\Users\admincan\Desktop\android-fundamentals-starter-apps-v2-master\SimpleCalc\app\src\main\AndroidManifest.xml:17:1-34:12
INJECTED from C:\Users\admincan\Desktop\android-fundamentals-starter-apps-v2-master\SimpleCalc\app\src\main\AndroidManifest.xml:17:1-34:12
	package
		ADDED from C:\Users\admincan\Desktop\android-fundamentals-starter-apps-v2-master\SimpleCalc\app\src\main\AndroidManifest.xml:18:5-45
		INJECTED from C:\Users\admincan\Desktop\android-fundamentals-starter-apps-v2-master\SimpleCalc\app\src\main\AndroidManifest.xml
		INJECTED from C:\Users\admincan\Desktop\android-fundamentals-starter-apps-v2-master\SimpleCalc\app\src\main\AndroidManifest.xml
	android:versionName
		INJECTED from C:\Users\admincan\Desktop\android-fundamentals-starter-apps-v2-master\SimpleCalc\app\src\main\AndroidManifest.xml
		ADDED from C:\Users\admincan\Desktop\android-fundamentals-starter-apps-v2-master\SimpleCalc\app\src\main\AndroidManifest.xml:17:1-34:12
		INJECTED from C:\Users\admincan\Desktop\android-fundamentals-starter-apps-v2-master\SimpleCalc\app\src\main\AndroidManifest.xml
	android:versionCode
		INJECTED from C:\Users\admincan\Desktop\android-fundamentals-starter-apps-v2-master\SimpleCalc\app\src\main\AndroidManifest.xml
		ADDED from C:\Users\admincan\Desktop\android-fundamentals-starter-apps-v2-master\SimpleCalc\app\src\main\AndroidManifest.xml:17:1-34:12
		INJECTED from C:\Users\admincan\Desktop\android-fundamentals-starter-apps-v2-master\SimpleCalc\app\src\main\AndroidManifest.xml
	xmlns:android
		ADDED from C:\Users\admincan\Desktop\android-fundamentals-starter-apps-v2-master\SimpleCalc\app\src\main\AndroidManifest.xml:17:11-69
application
ADDED from C:\Users\admincan\Desktop\android-fundamentals-starter-apps-v2-master\SimpleCalc\app\src\main\AndroidManifest.xml:20:5-32:19
MERGED from [com.android.support:support-compat:28.0.0] C:\Users\admincan\.gradle\caches\transforms-2\files-2.1\c7d84711d4886e28513461ad25ca6c9a\AndroidManifest.xml:22:5-94
MERGED from [com.android.support:support-compat:28.0.0] C:\Users\admincan\.gradle\caches\transforms-2\files-2.1\c7d84711d4886e28513461ad25ca6c9a\AndroidManifest.xml:22:5-94
MERGED from [com.android.support:versionedparcelable:28.0.0] C:\Users\admincan\.gradle\caches\transforms-2\files-2.1\98a428d603188a0227ce1e2a310bc066\AndroidManifest.xml:22:5-23:19
MERGED from [com.android.support:versionedparcelable:28.0.0] C:\Users\admincan\.gradle\caches\transforms-2\files-2.1\98a428d603188a0227ce1e2a310bc066\AndroidManifest.xml:22:5-23:19
	android:appComponentFactory
		ADDED from [com.android.support:support-compat:28.0.0] C:\Users\admincan\.gradle\caches\transforms-2\files-2.1\c7d84711d4886e28513461ad25ca6c9a\AndroidManifest.xml:22:18-91
	android:supportsRtl
		ADDED from C:\Users\admincan\Desktop\android-fundamentals-starter-apps-v2-master\SimpleCalc\app\src\main\AndroidManifest.xml:24:9-35
	android:label
		ADDED from C:\Users\admincan\Desktop\android-fundamentals-starter-apps-v2-master\SimpleCalc\app\src\main\AndroidManifest.xml:23:9-41
	android:icon
		ADDED from C:\Users\admincan\Desktop\android-fundamentals-starter-apps-v2-master\SimpleCalc\app\src\main\AndroidManifest.xml:22:9-43
	android:allowBackup
		ADDED from C:\Users\admincan\Desktop\android-fundamentals-starter-apps-v2-master\SimpleCalc\app\src\main\AndroidManifest.xml:21:9-35
	android:theme
		ADDED from C:\Users\admincan\Desktop\android-fundamentals-starter-apps-v2-master\SimpleCalc\app\src\main\AndroidManifest.xml:25:9-40
activity#com.example.android.SimpleCalc.MainActivity
ADDED from C:\Users\admincan\Desktop\android-fundamentals-starter-apps-v2-master\SimpleCalc\app\src\main\AndroidManifest.xml:26:9-31:20
	android:name
		ADDED from C:\Users\admincan\Desktop\android-fundamentals-starter-apps-v2-master\SimpleCalc\app\src\main\AndroidManifest.xml:26:19-77
intent-filter#action:name:android.intent.action.MAIN+category:name:android.intent.category.LAUNCHER
ADDED from C:\Users\admincan\Desktop\android-fundamentals-starter-apps-v2-master\SimpleCalc\app\src\main\AndroidManifest.xml:27:13-30:29
action#android.intent.action.MAIN
ADDED from C:\Users\admincan\Desktop\android-fundamentals-starter-apps-v2-master\SimpleCalc\app\src\main\AndroidManifest.xml:28:17-69
	android:name
		ADDED from C:\Users\admincan\Desktop\android-fundamentals-starter-apps-v2-master\SimpleCalc\app\src\main\AndroidManifest.xml:28:25-66
category#android.intent.category.LAUNCHER
ADDED from C:\Users\admincan\Desktop\android-fundamentals-starter-apps-v2-master\SimpleCalc\app\src\main\AndroidManifest.xml:29:17-77
	android:name
		ADDED from C:\Users\admincan\Desktop\android-fundamentals-starter-apps-v2-master\SimpleCalc\app\src\main\AndroidManifest.xml:29:27-74
uses-sdk
INJECTED from C:\Users\admincan\Desktop\android-fundamentals-starter-apps-v2-master\SimpleCalc\app\src\main\AndroidManifest.xml reason: use-sdk injection requested
INJECTED from C:\Users\admincan\Desktop\android-fundamentals-starter-apps-v2-master\SimpleCalc\app\src\main\AndroidManifest.xml
INJECTED from C:\Users\admincan\Desktop\android-fundamentals-starter-apps-v2-master\SimpleCalc\app\src\main\AndroidManifest.xml
MERGED from [com.android.support:appcompat-v7:28.0.0] C:\Users\admincan\.gradle\caches\transforms-2\files-2.1\af8dbb79ad706f16fd07dadb8505f836\AndroidManifest.xml:20:5-44
MERGED from [com.android.support:appcompat-v7:28.0.0] C:\Users\admincan\.gradle\caches\transforms-2\files-2.1\af8dbb79ad706f16fd07dadb8505f836\AndroidManifest.xml:20:5-44
MERGED from [com.android.support:support-fragment:28.0.0] C:\Users\admincan\.gradle\caches\transforms-2\files-2.1\4bb1c5ca3d037d38d2c6d98607f1dc67\AndroidManifest.xml:20:5-44
MERGED from [com.android.support:support-fragment:28.0.0] C:\Users\admincan\.gradle\caches\transforms-2\files-2.1\4bb1c5ca3d037d38d2c6d98607f1dc67\AndroidManifest.xml:20:5-44
MERGED from [com.android.support:animated-vector-drawable:28.0.0] C:\Users\admincan\.gradle\caches\transforms-2\files-2.1\fbace32e3e7ea238d66f862fe6505195\AndroidManifest.xml:20:5-44
MERGED from [com.android.support:animated-vector-drawable:28.0.0] C:\Users\admincan\.gradle\caches\transforms-2\files-2.1\fbace32e3e7ea238d66f862fe6505195\AndroidManifest.xml:20:5-44
MERGED from [com.android.support:support-core-ui:28.0.0] C:\Users\admincan\.gradle\caches\transforms-2\files-2.1\7cfc4f0eaed53f1ec4833a83320e2cdc\AndroidManifest.xml:20:5-44
MERGED from [com.android.support:support-core-ui:28.0.0] C:\Users\admincan\.gradle\caches\transforms-2\files-2.1\7cfc4f0eaed53f1ec4833a83320e2cdc\AndroidManifest.xml:20:5-44
MERGED from [com.android.support:support-core-utils:28.0.0] C:\Users\admincan\.gradle\caches\transforms-2\files-2.1\3fd5e4d033be1d9e8bb9dc269ae11ea1\AndroidManifest.xml:20:5-44
MERGED from [com.android.support:support-core-utils:28.0.0] C:\Users\admincan\.gradle\caches\transforms-2\files-2.1\3fd5e4d033be1d9e8bb9dc269ae11ea1\AndroidManifest.xml:20:5-44
MERGED from [com.android.support:support-vector-drawable:28.0.0] C:\Users\admincan\.gradle\caches\transforms-2\files-2.1\68f33f1cd9b12d31179cd16b8bf3bcbd\AndroidManifest.xml:20:5-44
MERGED from [com.android.support:support-vector-drawable:28.0.0] C:\Users\admincan\.gradle\caches\transforms-2\files-2.1\68f33f1cd9b12d31179cd16b8bf3bcbd\AndroidManifest.xml:20:5-44
MERGED from [com.android.support:loader:28.0.0] C:\Users\admincan\.gradle\caches\transforms-2\files-2.1\9cea74decd879a398d874344bd2042d9\AndroidManifest.xml:20:5-44
MERGED from [com.android.support:loader:28.0.0] C:\Users\admincan\.gradle\caches\transforms-2\files-2.1\9cea74decd879a398d874344bd2042d9\AndroidManifest.xml:20:5-44
MERGED from [com.android.support:viewpager:28.0.0] C:\Users\admincan\.gradle\caches\transforms-2\files-2.1\143edf04da3091d799ef3c6b24079e56\AndroidManifest.xml:20:5-44
MERGED from [com.android.support:viewpager:28.0.0] C:\Users\admincan\.gradle\caches\transforms-2\files-2.1\143edf04da3091d799ef3c6b24079e56\AndroidManifest.xml:20:5-44
MERGED from [com.android.support:coordinatorlayout:28.0.0] C:\Users\admincan\.gradle\caches\transforms-2\files-2.1\08a6cecb37ac5a112e0b234e9dd394f9\AndroidManifest.xml:20:5-44
MERGED from [com.android.support:coordinatorlayout:28.0.0] C:\Users\admincan\.gradle\caches\transforms-2\files-2.1\08a6cecb37ac5a112e0b234e9dd394f9\AndroidManifest.xml:20:5-44
MERGED from [com.android.support:drawerlayout:28.0.0] C:\Users\admincan\.gradle\caches\transforms-2\files-2.1\b9d6efba8a73f1101f3debf4f9fdc6a2\AndroidManifest.xml:20:5-44
MERGED from [com.android.support:drawerlayout:28.0.0] C:\Users\admincan\.gradle\caches\transforms-2\files-2.1\b9d6efba8a73f1101f3debf4f9fdc6a2\AndroidManifest.xml:20:5-44
MERGED from [com.android.support:slidingpanelayout:28.0.0] C:\Users\admincan\.gradle\caches\transforms-2\files-2.1\adf6eb0144000cbe396bddc5c2c9a077\AndroidManifest.xml:20:5-44
MERGED from [com.android.support:slidingpanelayout:28.0.0] C:\Users\admincan\.gradle\caches\transforms-2\files-2.1\adf6eb0144000cbe396bddc5c2c9a077\AndroidManifest.xml:20:5-44
MERGED from [com.android.support:customview:28.0.0] C:\Users\admincan\.gradle\caches\transforms-2\files-2.1\5e4485334331fd8e48b1a936d9ca8492\AndroidManifest.xml:20:5-44
MERGED from [com.android.support:customview:28.0.0] C:\Users\admincan\.gradle\caches\transforms-2\files-2.1\5e4485334331fd8e48b1a936d9ca8492\AndroidManifest.xml:20:5-44
MERGED from [com.android.support:swiperefreshlayout:28.0.0] C:\Users\admincan\.gradle\caches\transforms-2\files-2.1\9befaa2f22fbd2c44280bf4be5870cac\AndroidManifest.xml:20:5-44
MERGED from [com.android.support:swiperefreshlayout:28.0.0] C:\Users\admincan\.gradle\caches\transforms-2\files-2.1\9befaa2f22fbd2c44280bf4be5870cac\AndroidManifest.xml:20:5-44
MERGED from [com.android.support:asynclayoutinflater:28.0.0] C:\Users\admincan\.gradle\caches\transforms-2\files-2.1\bfb0ede27b7b8731c3639dc16275eac7\AndroidManifest.xml:20:5-44
MERGED from [com.android.support:asynclayoutinflater:28.0.0] C:\Users\admincan\.gradle\caches\transforms-2\files-2.1\bfb0ede27b7b8731c3639dc16275eac7\AndroidManifest.xml:20:5-44
MERGED from [com.android.support:support-compat:28.0.0] C:\Users\admincan\.gradle\caches\transforms-2\files-2.1\c7d84711d4886e28513461ad25ca6c9a\AndroidManifest.xml:20:5-44
MERGED from [com.android.support:support-compat:28.0.0] C:\Users\admincan\.gradle\caches\transforms-2\files-2.1\c7d84711d4886e28513461ad25ca6c9a\AndroidManifest.xml:20:5-44
MERGED from [com.android.support:versionedparcelable:28.0.0] C:\Users\admincan\.gradle\caches\transforms-2\files-2.1\98a428d603188a0227ce1e2a310bc066\AndroidManifest.xml:20:5-44
MERGED from [com.android.support:versionedparcelable:28.0.0] C:\Users\admincan\.gradle\caches\transforms-2\files-2.1\98a428d603188a0227ce1e2a310bc066\AndroidManifest.xml:20:5-44
MERGED from [com.android.support:cursoradapter:28.0.0] C:\Users\admincan\.gradle\caches\transforms-2\files-2.1\c60c99a4eed667922abf38ae3358c453\AndroidManifest.xml:20:5-44
MERGED from [com.android.support:cursoradapter:28.0.0] C:\Users\admincan\.gradle\caches\transforms-2\files-2.1\c60c99a4eed667922abf38ae3358c453\AndroidManifest.xml:20:5-44
MERGED from [android.arch.lifecycle:runtime:1.1.1] C:\Users\admincan\.gradle\caches\transforms-2\files-2.1\abfbc2ea0742ed39ed93c48a0a565355\AndroidManifest.xml:20:5-44
MERGED from [android.arch.lifecycle:runtime:1.1.1] C:\Users\admincan\.gradle\caches\transforms-2\files-2.1\abfbc2ea0742ed39ed93c48a0a565355\AndroidManifest.xml:20:5-44
MERGED from [com.android.support:documentfile:28.0.0] C:\Users\admincan\.gradle\caches\transforms-2\files-2.1\769212612daf513aff2f31eeae1f2b92\AndroidManifest.xml:20:5-44
MERGED from [com.android.support:documentfile:28.0.0] C:\Users\admincan\.gradle\caches\transforms-2\files-2.1\769212612daf513aff2f31eeae1f2b92\AndroidManifest.xml:20:5-44
MERGED from [com.android.support:localbroadcastmanager:28.0.0] C:\Users\admincan\.gradle\caches\transforms-2\files-2.1\655213e21815f09c771c17d9e12b7bb9\AndroidManifest.xml:20:5-44
MERGED from [com.android.support:localbroadcastmanager:28.0.0] C:\Users\admincan\.gradle\caches\transforms-2\files-2.1\655213e21815f09c771c17d9e12b7bb9\AndroidManifest.xml:20:5-44
MERGED from [com.android.support:print:28.0.0] C:\Users\admincan\.gradle\caches\transforms-2\files-2.1\4d63f53eeeb8628fbe65ea1e8ebb733d\AndroidManifest.xml:20:5-44
MERGED from [com.android.support:print:28.0.0] C:\Users\admincan\.gradle\caches\transforms-2\files-2.1\4d63f53eeeb8628fbe65ea1e8ebb733d\AndroidManifest.xml:20:5-44
MERGED from [android.arch.lifecycle:viewmodel:1.1.1] C:\Users\admincan\.gradle\caches\transforms-2\files-2.1\f37046e76e097699e0c085b52d4087c6\AndroidManifest.xml:20:5-44
MERGED from [android.arch.lifecycle:viewmodel:1.1.1] C:\Users\admincan\.gradle\caches\transforms-2\files-2.1\f37046e76e097699e0c085b52d4087c6\AndroidManifest.xml:20:5-44
MERGED from [android.arch.lifecycle:livedata:1.1.1] C:\Users\admincan\.gradle\caches\transforms-2\files-2.1\192f7b33af18ef56c9e0f824aec6ca41\AndroidManifest.xml:20:5-44
MERGED from [android.arch.lifecycle:livedata:1.1.1] C:\Users\admincan\.gradle\caches\transforms-2\files-2.1\192f7b33af18ef56c9e0f824aec6ca41\AndroidManifest.xml:20:5-44
MERGED from [android.arch.lifecycle:livedata-core:1.1.1] C:\Users\admincan\.gradle\caches\transforms-2\files-2.1\137b2ab515ab974692ec5573f110876c\AndroidManifest.xml:20:5-44
MERGED from [android.arch.lifecycle:livedata-core:1.1.1] C:\Users\admincan\.gradle\caches\transforms-2\files-2.1\137b2ab515ab974692ec5573f110876c\AndroidManifest.xml:20:5-44
MERGED from [android.arch.core:runtime:1.1.1] C:\Users\admincan\.gradle\caches\transforms-2\files-2.1\d27078017cb36e351e5a4d9eb648e2cc\AndroidManifest.xml:20:5-44
MERGED from [android.arch.core:runtime:1.1.1] C:\Users\admincan\.gradle\caches\transforms-2\files-2.1\d27078017cb36e351e5a4d9eb648e2cc\AndroidManifest.xml:20:5-44
MERGED from [com.android.support:interpolator:28.0.0] C:\Users\admincan\.gradle\caches\transforms-2\files-2.1\e01dee3495919d4ca2210d08cbf8506b\AndroidManifest.xml:20:5-44
MERGED from [com.android.support:interpolator:28.0.0] C:\Users\admincan\.gradle\caches\transforms-2\files-2.1\e01dee3495919d4ca2210d08cbf8506b\AndroidManifest.xml:20:5-44
INJECTED from C:\Users\admincan\Desktop\android-fundamentals-starter-apps-v2-master\SimpleCalc\app\src\main\AndroidManifest.xml
INJECTED from C:\Users\admincan\Desktop\android-fundamentals-starter-apps-v2-master\SimpleCalc\app\src\main\AndroidManifest.xml
	android:targetSdkVersion
		INJECTED from C:\Users\admincan\Desktop\android-fundamentals-starter-apps-v2-master\SimpleCalc\app\src\main\AndroidManifest.xml
		ADDED from C:\Users\admincan\Desktop\android-fundamentals-starter-apps-v2-master\SimpleCalc\app\src\main\AndroidManifest.xml
		INJECTED from C:\Users\admincan\Desktop\android-fundamentals-starter-apps-v2-master\SimpleCalc\app\src\main\AndroidManifest.xml
	android:minSdkVersion
		INJECTED from C:\Users\admincan\Desktop\android-fundamentals-starter-apps-v2-master\SimpleCalc\app\src\main\AndroidManifest.xml
		ADDED from C:\Users\admincan\Desktop\android-fundamentals-starter-apps-v2-master\SimpleCalc\app\src\main\AndroidManifest.xml
		INJECTED from C:\Users\admincan\Desktop\android-fundamentals-starter-apps-v2-master\SimpleCalc\app\src\main\AndroidManifest.xml
